"Time","Distance","Time","G Force Lat","G Force Long","G Force Vert","Gyro Yaw Angle","Steered Angle","Brake Pres Front","Brake Pres Rear","Verify Bomba","Verify Ventoinha","Susp Pos FL","Susp Pos FR","Strain Gage FL","Strain Gage FR","Brake Temp FL","Brake Temp FR","Ride Height FL","Ride Height FR","Tyre Temp FL Outer","Tyre Temp FL Center","Tyre Temp FL Inner","Tyre Temp FR Inner","Tyre Temp FR Center","Tyre Temp FR Outer","Pitot Front","Susp Pos RL","Susp Pos RR","Strain Gage RL","Strain Gage RR","Brake Temp RL","Brake Temp RR","Ride Height RL","Ride Height RR","Tyre Temp RL Outer","Tyre Temp RL Center","Tyre Temp RL Inner","Tyre Temp RR Inner","Tyre Temp RR Center","Tyre Temp RR Outer","Pitot Rear","Wheel Speed FL","Wheel Speed FR","Wheel Speed RL","Wheel Speed RR","Engine RPM","Battery Voltage","Manifold Pres","Throttle Pos","Engine Temp","Air Temp Inlet","Fuel Pres","Eng Oil Pres","Eng Oil Temp","Lambda 1","GPS Latitude","GPS Longitude","GPS Latitude Degrees","GPS Latitude Minutes","GPS Latitude Seconds","GPS Longitude Degrees","GPS Longitude Minutes","GPS Longitude Seconds","GPS Speed","Hour","Minute","Second","Day","Month","Year","Gear Position Sensor","Upshift Count","Downshift Count","Spark Cut","Downshift Delay","Downshift Time","Upshift Time","Clutch Time","Clutch","DRS","DRS Angle On","DRS Angle Off","DRS Count","Fan Duty Cicle","Relay Eng Temp","Lap Number"
"s","m","s","G","G","G","deg/s","deg","MPa","MPa","","","mm","mm","N","N","deg","deg","mm","mm","deg","deg","deg","deg","deg","deg","Pa","mm","mm","N","N","deg","deg","mm","mm","deg","deg","deg","deg","deg","deg","Pa","km/h","km/h","km/h","km/h","rpm","V","kPa","%","deg","deg","bar","bar","deg","","deg","deg","","","","","","","km/h","h","M","s","","","","","","","ms","ms","ms","ms","ms","","","","","","%","deg",""


"0.000","0.00","2324.3","0.060","-0.02","1.19","1.24","-5.17","0.0400","-0.0800","0.0000","0.0000","32.020","31.520","0.0000","0.000","-1","-1","-1","-1","-1","-1","-1","-1","-1","-1","-1","38.270","31.52","0.000","0.000","-1","-1","-1","-1","-1","-1","-1","-1","-1","-1","-1","0.0000","0.00","0.00","0.00","0","12.430","65.42","0.00","89.7","37.000","4.0000","7.360","89.2","1.100","22.1000","48.230","22.0000","6.0000","5.200","48.000","13.000","36.290","0.00","20.000","3.00","54.00","31.00","10.000","19.000","0.0000","0.000","0.000","15","-1","100","80","40","0.0000","0","170","126","0","200","24.00","-1"
"0.010","0.00","2324.3","0.060","-0.02","1.23","1.38","-5.17","0.0300","-0.0800","0.0000","0.0000","32.010","31.520","0.0000","0.000","-1","-1","-1","-1","-1","-1","-1","-1","-1","-1","-1","38.270","31.52","0.000","0.000","-1","-1","-1","-1","-1","-1","-1","-1","-1","-1","-1","0.0000","0.00","0.00","0.00","0","12.430","65.42","0.00","89.7","37.000","4.0000","7.360","89.2","1.100","22.1000","48.230","22.0000","6.0000","5.200","48.000","13.000","36.290","0.00","20.000","3.00","54.00","31.00","10.000","19.000","0.0000","0.000","0.000","15","-1","100","80","40","0.0000","0","170","126","0","200","24.10","-1"
"0.020","0.00","2324.3","0.050","-0.03","1.23","1.38","-5.17","0.0300","-0.0800","0.0000","0.0000","31.990","31.510","0.0000","0.000","-1","-1","-1","-1","-1","-1","-1","-1","-1","-1","-1","38.270","31.53","0.000","0.000","-1","-1","-1","-1","-1","-1","-1","-1","-1","-1","-1","0.0000","0.00","0.00","0.00","0","12.430","65.42","0.00","89.7","37.000","4.0000","7.360","89.2","1.100","22.1000","48.230","22.0000","6.0000","5.200","48.000","13.000","36.290","0.00","20.000","3.00","54.00","31.00","10.000","19.000","0.0000","0.000","0.000","15","-1","100","80","40","0.0000","0","170","126","0","200","24.20","-1"
"0.030","0.00","2324.3","0.040","-0.04","1.23","1.38","-5.21","0.0400","-0.0800","0.0000","0.0000","32.000","31.530","0.0000","0.000","-1","-1","-1","-1","-1","-1","-1","-1","-1","-1","-1","38.280","31.52","0.000","0.000","-1","-1","-1","-1","-1","-1","-1","-1","-1","-1","-1","0.0000","0.00","0.00","0.00","0","12.430","65.42","0.00","89.7","37.000","4.0000","7.360","89.2","1.100","22.1000","48.230","22.0000","6.0000","5.200","48.000","13.000","36.290","0.00","20.000","3.00","54.00","31.00","10.000","19.000","0.0000","0.000","0.000","15","-1","100","80","40","0.0000","0","170","126","0","200","24.30","-1"
"0.040","0.00","2324.3","0.060","-0.04","1.19","1.24","-5.24","0.0400","-0.0800","0.0000","0.0000","32.020","31.550","0.0000","0.000","-1","-1","-1","-1","-1","-1","-1","-1","-1","-1","-1","38.290","31.50","0.000","0.000","-1","-1","-1","-1","-1","-1","-1","-1","-1","-1","-1","0.0000","0.00","0.00","0.00","0","12.430","65.42","0.00","89.7","37.000","4.0000","7.360","89.2","1.100","22.1000","48.230","22.0000","6.0000","5.200","48.000","13.000","36.290","0.00","20.000","3.00","54.00","31.00","10.000","19.000","0.0000","0.000","0.000","15","-1","100","80","40","0.0000","0","170","126","0","200","24.40","-1"
"0.050","0.00","2324.4","0.060","-0.04","1.23","1.09","-5.28","0.0500","-0.0700","0.0000","0.0000","32.030","31.570","0.0000","0.000","-1","-1","-1","-1","-1","-1","-1","-1","-1","-1","-1","38.300","31.49","0.000","0.000","-1","-1","-1","-1","-1","-1","-1","-1","-1","-1","-1","0.0000","0.00","0.00","0.00","0","12.430","65.42","0.00","89.7","37.000","4.0000","7.360","89.2","1.100","22.1000","48.230","22.0000","6.0000","5.200","48.000","13.000","36.290","0.00","20.000","3.00","54.00","31.00","10.000","19.000","0.0000","0.000","0.000","15","-1","100","80","40","0.0000","0","170","126","0","200","24.50","-1"
"0.060","0.00","2324.4","0.060","-0.04","1.21","1.16","-5.32","0.0500","-0.0700","0.0000","0.0000","32.040","31.580","0.0000","0.000","-1","-1","-1","-1","-1","-1","-1","-1","-1","-1","-1","38.300","31.47","0.000","0.000","-1","-1","-1","-1","-1","-1","-1","-1","-1","-1","-1","0.0000","0.00","0.00","0.00","0","12.430","65.42","0.00","89.7","37.000","4.0000","7.360","89.2","1.100","22.1000","48.230","22.0000","6.0000","5.200","48.000","13.000","36.290","0.00","20.000","3.00","54.00","31.00","10.000","19.000","0.0000","0.000","0.000","15","-1","100","80","40","0.0000","0","170","126","0","200","24.60","-1"
"0.070","0.00","2324.4","0.060","-0.04","1.19","1.24","-5.29","0.0500","-0.0700","0.0000","0.0000","32.060","31.600","0.0000","0.000","-1","-1","-1","-1","-1","-1","-1","-1","-1","-1","-1","38.310","31.46","0.000","0.000","-1","-1","-1","-1","-1","-1","-1","-1","-1","-1","-1","0.0000","0.00","0.00","0.00","0","12.430","65.42","0.00","89.7","37.000","4.0000","7.360","89.2","1.100","22.1000","48.230","22.0000","6.0000","5.200","48.000","13.000","36.290","0.00","20.000","3.00","54.00","31.00","10.000","19.000","0.0000","0.000","0.000","15","-1","100","80","40","0.0000","0","170","126","0","200","24.70","-1"
"0.080","0.00","2324.4","0.060","-0.04","1.23","1.24","-5.27","0.0500","-0.0700","0.0000","0.0000","32.070","31.620","0.0000","0.000","-1","-1","-1","-1","-1","-1","-1","-1","-1","-1","-1","38.320","31.45","0.000","0.000","-1","-1","-1","-1","-1","-1","-1","-1","-1","-1","-1","0.0000","0.00","0.00","0.00","0","12.430","65.42","0.00","89.7","37.000","4.0000","7.360","89.2","1.100","22.1000","48.230","22.0000","6.0000","5.200","48.000","13.000","36.290","0.00","20.000","3.00","54.00","31.00","10.000","19.000","0.0000","0.000","0.000","15","-1","100","80","40","0.0000","0","170","126","0","200","24.80","-1"
"0.090","0.00","2324.4","0.060","-0.04","1.22","1.16","-5.24","0.0500","-0.0700","0.0000","0.0000","32.090","31.640","0.0000","0.000","-1","-1","-1","-1","-1","-1","-1","-1","-1","-1","-1","38.330","31.43","0.000","0.000","-1","-1","-1","-1","-1","-1","-1","-1","-1","-1","-1","0.0000","0.00","0.00","0.00","0","12.430","65.42","0.00","89.7","37.000","4.0000","7.360","89.2","1.100","22.1000","48.230","22.0000","6.0000","5.200","48.000","13.000","36.290","0.00","20.000","3.00","54.00","31.00","10.000","19.000","0.0000","0.000","0.000","15","-1","100","80","40","0.0000","0","170","126","0","200","24.90","-1"
"0.100","0.00","2324.4","0.060","-0.04","1.21","1.09","-5.22","0.0500","-0.0700","0.0000","0.0000","32.100","31.660","0.0000","0.000","-1","-1","-1","-1","-1","-1","-1","-1","-1","-1","-1","38.340","31.42","0.000","0.000","-1","-1","-1","-1","-1","-1","-1","-1","-1","-1","-1","0.0000","0.00","0.00","0.00","0","12.430","65.42","0.00","89.7","37.000","4.0000","7.360","89.2","1.100","22.1000","48.230","22.0000","6.0000","5.200","48.000","13.000","36.290","0.00","20.000","3.00","54.00","31.00","10.000","19.000","0.0000","0.000","0.000","15","-1","100","80","40","0.0000","0","170","126","0","200","25.00","-1"
"0.110","0.00","2324.4","0.040","-0.02","1.23","1.09","-5.19","0.0500","-0.0700","0.0000","0.0000","32.120","31.680","0.0000","0.000","-1","-1","-1","-1","-1","-1","-1","-1","-1","-1","-1","38.330","31.42","0.000","0.000","-1","-1","-1","-1","-1","-1","-1","-1","-1","-1","-1","0.0000","0.00","0.00","0.00","0","12.430","65.42","0.00","89.7","37.000","4.0000","7.360","89.2","1.100","22.1000","48.230","22.0000","6.0000","5.200","48.000","13.000","36.290","0.00","20.000","3.00","54.00","31.00","10.000","19.000","0.0000","0.000","0.000","15","-1","100","80","40","0.0000","0","170","126","0","200","24.80","-1"
"0.120","0.00","2324.4","0.040","-0.04","1.23","1.09","-5.17","0.0500","-0.0700","0.0000","0.0000","32.110","31.650","0.0000","0.000","-1","-1","-1","-1","-1","-1","-1","-1","-1","-1","-1","38.330","31.43","0.000","0.000","-1","-1","-1","-1","-1","-1","-1","-1","-1","-1","-1","0.0000","0.00","0.00","0.00","0","12.430","65.42","0.00","89.7","37.000","4.0000","7.360","89.2","1.100","22.1000","48.230","22.0000","6.0000","5.200","48.000","13.000","36.290","0.00","20.000","3.00","54.00","31.00","10.000","19.000","0.0000","0.000","0.000","15","-1","100","80","40","0.0000","0","170","126","0","200","24.60","-1"
"0.130","0.00","2324.4","0.040","-0.02","1.23","1.38","-5.17","0.0500","-0.0700","0.0000","0.0000","32.110","31.620","0.0000","0.000","-1","-1","-1","-1","-1","-1","-1","-1","-1","-1","-1","38.320","31.43","0.000","0.000","-1","-1","-1","-1","-1","-1","-1","-1","-1","-1","-1","0.0000","0.00","0.00","0.00","0","12.430","65.42","0.00","89.7","37.000","4.0000","7.360","89.2","1.100","22.1000","48.230","22.0000","6.0000","5.200","48.000","13.000","36.290","0.00","20.000","3.00","54.00","31.00","10.000","19.000","0.0000","0.000","0.000","15","-1","100","80","40","0.0000","0","170","126","0","200","24.40","-1"
"0.140","0.00","2324.4","0.040","-0.04","1.25","1.52","-5.17","0.0500","-0.0600","0.0000","0.0000","32.110","31.590","0.0000","0.000","-1","-1","-1","-1","-1","-1","-1","-1","-1","-1","-1","38.310","31.44","0.000","0.000","-1","-1","-1","-1","-1","-1","-1","-1","-1","-1","-1","0.0000","0.00","0.00","0.00","0","12.430","65.42","0.00","89.7","37.000","4.0000","7.360","89.2","1.100","22.1000","48.230","22.0000","6.0000","5.200","48.000","13.000","36.290","0.00","20.000","3.00","54.05","31.00","10.000","19.000","0.0000","0.000","0.000","15","-1","100","80","40","0.0000","0","170","126","0","200","24.20","-1"
"0.150","0.00","2324.5","0.040","-0.04","1.23","1.24","-5.17","0.0500","-0.0600","0.0000","0.0000","32.110","31.560","0.0000","0.000","-1","-1","-1","-1","-1","-1","-1","-1","-1","-1","-1","38.310","31.44","0.000","0.000","-1","-1","-1","-1","-1","-1","-1","-1","-1","-1","-1","0.0000","0.00","0.00","0.00","0","12.430","65.42","0.00","89.7","37.000","4.0000","7.360","89.2","1.100","22.1000","48.230","22.0000","6.0000","5.200","48.000","13.000","36.290","0.00","20.000","3.00","54.10","31.00","10.000","19.000","0.0000","0.000","0.000","15","-1","100","80","40","0.0000","0","170","126","0","200","24.00","-1"
"0.160","0.00","2324.5","0.050","-0.04","1.27","1.24","-5.17","0.0400","-0.0600","0.0000","0.0000","32.100","31.530","0.0000","0.000","-1","-1","-1","-1","-1","-1","-1","-1","-1","-1","-1","38.300","31.45","0.000","0.000","-1","-1","-1","-1","-1","-1","-1","-1","-1","-1","-1","0.0000","0.00","0.00","0.00","0","12.430","65.42","0.00","89.7","37.000","4.0000","7.360","89.2","1.100","22.1000","48.230","22.0000","6.0000","5.200","48.000","13.000","36.290","0.00","20.000","3.00","54.15","31.00","10.000","19.000","0.0000","0.000","0.000","15","-1","100","80","40","0.0000","0","170","126","0","200","23.80","-1"
"0.170","0.00","2324.5","0.060","-0.04","1.31","1.24","-5.17","0.0400","-0.0600","0.0000","0.0000","32.100","31.500","0.0000","0.000","-1","-1","-1","-1","-1","-1","-1","-1","-1","-1","-1","38.290","31.45","0.000","0.000","-1","-1","-1","-1","-1","-1","-1","-1","-1","-1","-1","0.0000","0.00","0.00","0.00","0","12.430","65.42","0.00","89.7","37.000","4.0000","7.360","89.2","1.100","22.1000","48.230","22.0000","6.0000","5.200","48.000","13.000","36.290","0.00","20.000","3.00","54.20","31.00","10.000","19.000","0.0000","0.000","0.000","15","-1","100","80","40","0.0000","0","170","126","0","200","23.60","-1"
"0.180","0.00","2324.5","0.050","-0.03","1.28","1.24","-5.17","0.0400","-0.0600","0.0000","0.0000","32.100","31.470","0.0000","0.000","-1","-1","-1","-1","-1","-1","-1","-1","-1","-1","-1","38.290","31.46","0.000","0.000","-1","-1","-1","-1","-1","-1","-1","-1","-1","-1","-1","0.0000","0.00","0.00","0.00","0","12.430","65.42","0.00","89.7","37.000","4.0000","7.360","89.2","1.100","22.1000","48.230","22.0000","6.0000","5.200","48.000","13.000","36.290","0.00","20.000","3.00","54.25","31.00","10.000","19.000","0.0000","0.000","0.000","15","-1","100","80","40","0.0000","0","170","126","0","200","23.40","-1"
"0.190","0.00","2324.5","0.040","-0.02","1.25","1.24","-5.17","0.0400","-0.0700","0.0000","0.0000","32.100","31.440","0.0000","0.000","-1","-1","-1","-1","-1","-1","-1","-1","-1","-1","-1","38.280","31.45","0.000","0.000","-1","-1","-1","-1","-1","-1","-1","-1","-1","-1","-1","0.0000","0.00","0.00","0.00","0","12.430","65.42","0.00","89.7","37.000","4.0000","7.360","89.2","1.100","22.1000","48.230","22.0000","6.0000","5.200","48.000","13.000","36.290","0.00","20.000","3.00","54.30","31.00","10.000","19.000","0.0000","0.000","0.000","15","-1","100","80","40","0.0000","0","170","126","0","200","23.20","-1"
"0.200","0.00","2324.5","0.080","-0.04","1.23","1.24","-5.17","0.0400","-0.0700","0.0000","0.0000","32.080","31.450","0.0000","0.000","-1","-1","-1","-1","-1","-1","-1","-1","-1","-1","-1","38.280","31.45","0.000","0.000","-1","-1","-1","-1","-1","-1","-1","-1","-1","-1","-1","0.0000","0.00","0.00","0.00","0","12.430","65.42","0.00","89.7","37.000","4.0000","7.360","89.2","1.100","22.1000","48.230","22.0000","6.0000","5.200","48.000","13.000","36.290","0.00","20.000","3.00","54.35","31.00","10.000","19.000","0.0000","0.000","0.000","15","-1","100","80","40","0.0000","0","170","126","0","200","23.00","-1"
"0.210","0.00","2324.5","0.060","-0.03","1.23","1.16","-5.17","0.0400","-0.0700","0.0000","0.0000","32.070","31.460","0.0000","0.000","-1","-1","-1","-1","-1","-1","-1","-1","-1","-1","-1","38.280","31.44","0.000","0.000","-1","-1","-1","-1","-1","-1","-1","-1","-1","-1","-1","0.0000","0.00","0.00","0.00","0","12.430","65.42","0.00","89.7","37.000","4.0000","7.360","89.2","1.100","22.1000","48.230","22.0000","6.0000","5.200","48.000","13.000","36.290","0.00","20.000","3.00","54.40","31.00","10.000","19.000","0.0000","0.000","0.000","15","-1","100","80","40","0.0000","0","170","126","0","200","23.40","-1"
"0.220","0.00","2324.5","0.040","-0.02","1.23","1.09","-5.17","0.0400","-0.0800","0.0000","0.0000","32.050","31.470","0.0000","0.000","-1","-1","-1","-1","-1","-1","-1","-1","-1","-1","-1","38.280","31.44","0.000","0.000","-1","-1","-1","-1","-1","-1","-1","-1","-1","-1","-1","0.0000","0.00","0.00","0.00","0","12.430","65.42","0.00","89.7","37.000","4.0000","7.360","89.2","1.100","22.1000","48.230","22.0000","6.0000","5.200","48.000","13.000","36.290","0.00","20.000","3.00","54.45","31.00","10.000","19.000","0.0000","0.000","0.000","15","-1","100","80","40","0.0000","0","170","126","0","200","23.80","-1"
"0.230","0.00","2324.5","0.060","-0.04","1.21","1.09","-5.18","0.0400","-0.0700","0.0000","0.0000","32.030","31.470","0.0000","0.000","-1","-1","-1","-1","-1","-1","-1","-1","-1","-1","-1","38.270","31.43","0.000","0.000","-1","-1","-1","-1","-1","-1","-1","-1","-1","-1","-1","0.0000","0.00","0.00","0.00","0","12.430","65.42","0.00","89.7","37.000","4.0000","7.360","89.2","1.100","22.1000","48.230","22.0000","6.0000","5.200","48.000","13.000","36.290","0.00","20.000","3.00","54.50","31.00","10.000","19.000","0.0000","0.000","0.000","15","-1","100","80","40","0.0000","0","170","126","0","200","24.20","-1"
"0.240","0.00","2324.6","0.060","-0.04","1.19","1.09","-5.20","0.0400","-0.0700","0.0000","0.0000","32.020","31.480","0.0000","0.000","-1","-1","-1","-1","-1","-1","-1","-1","-1","-1","-1","38.270","31.43","0.000","0.000","-1","-1","-1","-1","-1","-1","-1","-1","-1","-1","-1","0.0000","0.00","0.00","0.00","0","12.430","65.42","0.00","89.7","37.000","4.0000","7.360","89.2","1.100","22.1000","48.230","22.0000","6.0000","5.200","48.000","13.000","36.290","0.00","20.000","3.00","54.55","31.00","10.000","19.000","0.0000","0.000","0.000","15","-1","100","80","40","0.0000","0","170","126","0","200","24.60","-1"
"0.250","0.00","2324.6","0.060","-0.04","1.21","1.09","-5.21","0.0400","-0.0700","0.0000","0.0000","32.000","31.490","0.0000","0.000","-1","-1","-1","-1","-1","-1","-1","-1","-1","-1","-1","38.270","31.42","0.000","0.000","-1","-1","-1","-1","-1","-1","-1","-1","-1","-1","-1","0.0000","0.00","0.00","0.00","0","12.430","65.42","0.00","89.7","37.000","4.0000","7.360","89.2","1.100","22.1000","48.230","22.0000","6.0000","5.200","48.000","13.000","36.290","0.00","20.000","3.00","54.60","31.00","10.000","19.000","0.0000","0.000","0.000","15","-1","100","80","40","0.0000","0","170","126","0","200","25.00","-1"
"0.260","0.00","2324.6","0.050","-0.03","1.21","1.16","-5.23","0.0400","-0.0600","0.0000","0.0000","31.990","31.500","0.0000","0.000","-1","-1","-1","-1","-1","-1","-1","-1","-1","-1","-1","38.270","31.42","0.000","0.000","-1","-1","-1","-1","-1","-1","-1","-1","-1","-1","-1","0.0000","0.00","0.00","0.00","0","12.430","65.42","0.00","89.7","37.000","4.0000","7.360","89.2","1.100","22.1000","48.230","22.0000","6.0000","5.200","48.000","13.000","36.290","0.00","20.000","3.00","54.65","31.00","10.000","19.000","0.0000","0.000","0.000","15","-1","100","80","40","0.0000","0","170","126","0","200","25.40","-1"
"0.270","0.00","2324.6","0.040","-0.02","1.21","1.24","-5.24","0.0400","-0.0600","0.0000","0.0000","31.970","31.510","0.0000","0.000","-1","-1","-1","-1","-1","-1","-1","-1","-1","-1","-1","38.270","31.43","0.000","0.000","-1","-1","-1","-1","-1","-1","-1","-1","-1","-1","-1","0.0000","0.00","0.00","0.00","0","12.430","65.42","0.00","89.7","37.000","4.0000","7.360","89.2","1.100","22.1000","48.230","22.0000","6.0000","5.200","48.000","13.000","36.290","0.00","20.000","3.00","54.70","31.00","10.000","19.000","0.0000","0.000","0.000","15","-1","100","80","40","0.0000","0","170","126","0","200","25.80","-1"
"0.280","0.00","2324.6","0.060","-0.04","1.23","1.24","-5.23","0.0400","-0.0600","0.0000","0.0000","31.980","31.510","0.0000","0.000","-1","-1","-1","-1","-1","-1","-1","-1","-1","-1","-1","38.270","31.43","0.000","0.000","-1","-1","-1","-1","-1","-1","-1","-1","-1","-1","-1","0.0000","0.00","0.00","0.00","0","12.430","65.42","0.00","89.7","37.000","4.0000","7.360","89.2","1.100","22.1000","48.230","22.0000","6.0000","5.200","48.000","13.000","36.290","0.00","20.000","3.00","54.75","31.00","10.000","19.000","0.0000","0.000","0.000","15","-1","100","80","40","0.0000","0","170","126","0","200","26.20","-1"
"0.290","0.00","2324.6","0.050","-0.03","1.22","1.24","-5.21","0.0400","-0.0600","0.0000","0.0000","31.990","31.500","0.0000","0.000","-1","-1","-1","-1","-1","-1","-1","-1","-1","-1","-1","38.270","31.44","0.000","0.000","-1","-1","-1","-1","-1","-1","-1","-1","-1","-1","-1","0.0000","0.00","0.00","0.00","0","12.430","65.42","0.00","89.7","37.000","4.0000","7.360","89.2","1.100","22.1000","48.230","22.0000","6.0000","5.200","48.000","13.000","36.290","0.00","20.000","3.00","54.80","31.00","10.000","19.000","0.0000","0.000","0.000","15","-1","100","80","40","0.0000","0","170","126","0","200","26.60","-1"
"0.300","0.00","2324.6","0.040","-0.02","1.21","1.24","-5.20","0.0400","-0.0600","0.0000","0.0000","32.000","31.500","0.0000","0.000","-1","-1","-1","-1","-1","-1","-1","-1","-1","-1","-1","38.280","31.44","0.000","0.000","-1","-1","-1","-1","-1","-1","-1","-1","-1","-1","-1","0.0000","0.00","0.00","0.00","0","12.430","65.42","0.00","89.7","37.000","4.0000","7.360","89.2","1.100","22.1000","48.230","22.0000","6.0000","5.200","48.000","13.000","36.290","0.00","20.000","3.00","54.85","31.00","10.000","19.000","0.0000","0.000","0.000","15","-1","100","80","40","0.0000","0","170","126","0","200","27.00","-1"
"0.310","0.00","2324.6","0.060","-0.04","1.22","1.24","-5.18","0.0400","-0.0700","0.0000","0.0000","32.010","31.490","0.0000","0.000","-1","-1","-1","-1","-1","-1","-1","-1","-1","-1","-1","38.280","31.45","0.000","0.000","-1","-1","-1","-1","-1","-1","-1","-1","-1","-1","-1","0.0000","0.00","0.00","0.00","0","12.430","65.42","0.00","89.7","37.000","4.0000","7.360","89.2","1.100","22.1000","48.230","22.0000","6.0000","5.200","48.000","13.000","36.290","0.00","20.000","3.00","54.90","31.00","10.000","19.000","0.0000","0.000","0.000","15","-1","100","80","40","0.0000","0","170","126","0","200","26.80","-1"
"0.320","0.00","2324.6","0.080","-0.06","1.23","1.24","-5.17","0.0400","-0.0700","0.0000","0.0000","32.020","31.490","0.0000","0.000","-1","-1","-1","-1","-1","-1","-1","-1","-1","-1","-1","38.280","31.46","0.000","0.000","-1","-1","-1","-1","-1","-1","-1","-1","-1","-1","-1","0.0000","0.00","0.00","0.00","0","12.430","65.42","0.00","89.7","37.000","4.0000","7.360","89.2","1.100","22.1000","48.230","22.0000","6.0000","5.200","48.000","13.000","36.290","0.00","20.000","3.00","54.95","31.00","10.000","19.000","0.0000","0.000","0.000","15","-1","100","80","40","0.0000","0","170","126","0","200","26.60","-1"
"0.330","0.00","2324.6","0.040","-0.04","1.23","1.24","-5.17","0.0400","-0.0600","0.0000","0.0000","32.020","31.480","0.0000","0.000","-1","-1","-1","-1","-1","-1","-1","-1","-1","-1","-1","38.280","31.46","0.000","0.000","-1","-1","-1","-1","-1","-1","-1","-1","-1","-1","-1","0.0000","0.00","0.00","0.00","0","12.430","65.42","0.00","89.7","37.000","4.0000","7.360","89.2","1.100","22.1000","48.230","22.0000","6.0000","5.200","48.000","13.000","36.290","0.00","20.000","3.00","55.00","31.00","10.000","19.000","0.0000","0.000","0.000","15","-1","100","80","40","0.0000","0","170","126","0","200","26.40","-1"
"0.340","0.00","2324.7","0.080","-0.04","1.25","1.09","-5.17","0.0400","-0.0600","0.0000","0.0000","32.030","31.480","0.0000","0.000","-1","-1","-1","-1","-1","-1","-1","-1","-1","-1","-1","38.280","31.47","0.000","0.000","-1","-1","-1","-1","-1","-1","-1","-1","-1","-1","-1","0.0000","0.00","0.00","0.00","0","12.430","65.42","0.00","89.7","37.000","4.0000","7.360","89.2","1.100","22.1000","48.230","22.0000","6.0000","5.200","48.000","13.000","36.290","0.00","20.000","3.00","55.00","31.00","10.000","19.000","0.0000","0.000","0.000","15","-1","100","80","40","0.0000","0","170","126","0","200","26.20","-1"
"0.350","0.00","2324.7","0.060","-0.04","1.23","1.24","-5.17","0.0400","-0.0600","0.0000","0.0000","32.040","31.470","0.0000","0.000","-1","-1","-1","-1","-1","-1","-1","-1","-1","-1","-1","38.290","31.47","0.000","0.000","-1","-1","-1","-1","-1","-1","-1","-1","-1","-1","-1","0.0000","0.00","0.00","0.00","0","12.430","65.42","0.00","89.7","37.000","4.0000","7.360","89.2","1.100","22.1000","48.230","22.0000","6.0000","5.200","48.000","13.000","36.290","0.00","20.000","3.00","55.00","31.00","10.000","19.000","0.0000","0.000","0.000","15","-1","100","80","40","0.0000","0","170","126","0","200","26.00","-1"
"0.360","0.00","2324.7","0.050","-0.03","1.22","1.16","-5.17","0.0400","-0.0500","0.0000","0.0000","32.040","31.500","0.0000","0.000","-1","-1","-1","-1","-1","-1","-1","-1","-1","-1","-1","38.290","31.47","0.000","0.000","-1","-1","-1","-1","-1","-1","-1","-1","-1","-1","-1","0.0000","0.00","0.00","0.00","0","12.430","65.42","0.00","89.7","37.000","4.0000","7.360","89.2","1.100","22.1000","48.230","22.0000","6.0000","5.200","48.000","13.000","36.290","0.00","20.000","3.00","55.00","31.00","10.000","19.000","0.0000","0.000","0.000","15","-1","100","80","40","0.0000","0","170","126","0","200","25.80","-1"
"0.370","0.00","2324.7","0.040","-0.02","1.21","1.09","-5.17","0.0300","-0.0500","0.0000","0.0000","32.030","31.520","0.0000","0.000","-1","-1","-1","-1","-1","-1","-1","-1","-1","-1","-1","38.290","31.47","0.000","0.000","-1","-1","-1","-1","-1","-1","-1","-1","-1","-1","-1","0.0000","0.00","0.00","0.00","0","12.430","65.42","0.00","89.7","37.000","4.0000","7.360","89.2","1.100","22.1000","48.230","22.0000","6.0000","5.200","48.000","13.000","36.290","0.00","20.000","3.00","55.00","31.00","10.000","19.000","0.0000","0.000","0.000","15","-1","100","80","40","0.0000","0","170","126","0","200","25.60","-1"
"0.380","0.00","2324.7","0.040","-0.02","1.23","1.09","-5.18","0.0400","-0.0600","0.0000","0.0000","32.030","31.540","0.0000","0.000","-1","-1","-1","-1","-1","-1","-1","-1","-1","-1","-1","38.290","31.47","0.000","0.000","-1","-1","-1","-1","-1","-1","-1","-1","-1","-1","-1","0.0000","0.00","0.00","0.00","0","12.430","65.42","0.00","89.7","37.000","4.0000","7.360","89.2","1.100","22.1000","48.230","22.0000","6.0000","5.200","48.000","13.000","36.290","0.00","20.000","3.00","55.00","31.00","10.000","19.000","0.0000","0.000","0.000","15","-1","100","80","40","0.0000","0","170","126","0","200","25.40","-1"
"0.390","0.00","2324.7","0.040","-0.02","1.23","1.09","-5.20","0.0400","-0.0600","0.0000","0.0000","32.020","31.560","0.0000","0.000","-1","-1","-1","-1","-1","-1","-1","-1","-1","-1","-1","38.300","31.47","0.000","0.000","-1","-1","-1","-1","-1","-1","-1","-1","-1","-1","-1","0.0000","0.00","0.00","0.00","0","12.430","65.42","0.00","89.7","37.000","4.0000","7.360","89.2","1.100","22.1000","48.230","22.0000","6.0000","5.200","48.000","13.000","36.290","0.00","20.000","3.00","55.00","31.00","10.000","19.000","0.0000","0.000","0.000","15","-1","100","80","40","0.0000","0","170","126","0","200","25.20","-1"
"0.400","0.00","2324.7","0.040","-0.02","1.23","1.09","-5.21","0.0400","-0.0700","0.0000","0.0000","32.020","31.580","0.0000","0.000","-1","-1","-1","-1","-1","-1","-1","-1","-1","-1","-1","38.300","31.47","0.000","0.000","-1","-1","-1","-1","-1","-1","-1","-1","-1","-1","-1","0.0000","0.00","0.00","0.00","0","12.430","65.42","0.00","89.7","37.000","4.0000","7.360","89.2","1.100","22.1000","48.230","22.0000","6.0000","5.200","48.000","13.000","36.290","0.00","20.000","3.00","55.00","31.00","10.000","19.000","0.0000","0.000","0.000","15","-1","100","80","40","0.0000","0","170","126","0","200","25.00","-1"
"0.410","0.00","2324.7","0.050","-0.03","1.23","1.09","-5.23","0.0500","-0.0700","0.0000","0.0000","32.020","31.600","0.0000","0.000","-1","-1","-1","-1","-1","-1","-1","-1","-1","-1","-1","38.300","31.47","0.000","0.000","-1","-1","-1","-1","-1","-1","-1","-1","-1","-1","-1","0.0000","0.00","0.00","0.00","0","12.430","65.42","0.00","89.7","37.000","4.0000","7.360","89.2","1.100","22.1000","48.230","22.0000","6.0000","5.200","48.000","13.000","36.290","0.00","20.000","3.00","55.00","31.00","10.000","19.000","0.0000","0.000","0.000","15","-1","100","80","40","0.0000","0","170","126","0","200","24.90","-1"
"0.420","0.00","2324.7","0.060","-0.04","1.23","1.09","-5.24","0.0500","-0.0800","0.0000","0.0000","32.010","31.620","0.0000","0.000","-1","-1","-1","-1","-1","-1","-1","-1","-1","-1","-1","38.300","31.47","0.000","0.000","-1","-1","-1","-1","-1","-1","-1","-1","-1","-1","-1","0.0000","0.00","0.00","0.00","0","12.430","65.42","0.00","89.7","37.000","4.0000","7.360","89.2","1.100","22.1000","48.230","22.0000","6.0000","5.200","48.000","13.000","36.290","0.00","20.000","3.00","55.00","31.00","10.000","19.000","0.0000","0.000","0.000","15","-1","100","80","40","0.0000","0","170","126","0","200","24.80","-1"
"0.430","0.00","2324.7","0.040","-0.04","1.21","1.24","-5.23","0.0500","-0.0700","0.0000","0.0000","32.010","31.640","0.0000","0.000","-1","-1","-1","-1","-1","-1","-1","-1","-1","-1","-1","38.300","31.47","0.000","0.000","-1","-1","-1","-1","-1","-1","-1","-1","-1","-1","-1","0.0000","0.00","0.00","0.00","0","12.430","65.42","0.00","89.7","37.000","4.0000","7.360","89.2","1.100","22.1000","48.230","22.0000","6.0000","5.200","48.000","13.000","36.290","0.00","20.000","3.00","55.00","31.00","10.000","19.000","0.0000","0.000","0.000","15","-1","100","80","40","0.0000","0","170","126","0","200","24.70","-1"
"0.440","0.00","2324.8","0.020","-0.04","1.23","1.38","-5.21","0.0400","-0.0700","0.0000","0.0000","32.000","31.620","0.0000","0.000","-1","-1","-1","-1","-1","-1","-1","-1","-1","-1","-1","38.300","31.47","0.000","0.000","-1","-1","-1","-1","-1","-1","-1","-1","-1","-1","-1","0.0000","0.00","0.00","0.00","0","12.430","65.42","0.00","89.7","37.000","4.0000","7.360","89.2","1.100","22.1000","48.230","22.0000","6.0000","5.200","48.000","13.000","36.290","0.00","20.000","3.00","55.00","31.00","10.000","19.000","0.0000","0.000","0.000","15","-1","100","80","40","0.0000","0","170","126","0","200","24.60","-1"
"0.450","0.00","2324.8","0.060","-0.04","1.19","1.24","-5.20","0.0400","-0.0700","0.0000","0.0000","32.000","31.610","0.0000","0.000","-1","-1","-1","-1","-1","-1","-1","-1","-1","-1","-1","38.300","31.46","0.000","0.000","-1","-1","-1","-1","-1","-1","-1","-1","-1","-1","-1","0.0000","0.00","0.00","0.00","0","12.430","65.42","0.00","89.7","37.000","4.0000","7.360","89.2","1.100","22.1000","48.230","22.0000","6.0000","5.200","48.000","13.000","36.290","0.00","20.000","3.00","55.00","31.00","10.000","19.000","0.0000","0.000","0.000","15","-1","100","80","40","0.0000","0","170","126","0","200","24.50","-1"
"0.460","0.00","2324.8","0.060","-0.04","1.21","1.24","-5.18","0.0400","-0.0700","0.0000","0.0000","32.000","31.590","0.0000","0.000","-1","-1","-1","-1","-1","-1","-1","-1","-1","-1","-1","38.300","31.45","0.000","0.000","-1","-1","-1","-1","-1","-1","-1","-1","-1","-1","-1","0.0000","0.00","0.00","0.00","0","12.430","65.42","0.00","89.7","37.000","4.0000","7.360","89.2","1.100","22.1000","48.230","22.0000","6.0000","5.200","48.000","13.000","36.290","0.00","20.000","3.00","55.00","31.00","10.000","19.000","0.0000","0.000","0.000","15","-1","100","80","40","0.0000","0","170","126","0","200","24.40","-1"
"0.470","0.00","2324.8","0.050","-0.05","1.21","1.24","-5.17","0.0300","-0.0700","0.0000","0.0000","32.000","31.580","0.0000","0.000","-1","-1","-1","-1","-1","-1","-1","-1","-1","-1","-1","38.300","31.44","0.000","0.000","-1","-1","-1","-1","-1","-1","-1","-1","-1","-1","-1","0.0000","0.00","0.00","0.00","0","12.430","65.42","0.00","89.7","37.000","4.0000","7.360","89.2","1.100","22.1000","48.230","22.0000","6.0000","5.200","48.000","13.000","36.290","0.00","20.000","3.00","55.00","31.00","10.000","19.000","0.0000","0.000","0.000","15","-1","100","80","40","0.0000","0","170","126","0","200","24.30","-1"
"0.480","0.00","2324.8","0.040","-0.06","1.21","1.24","-5.17","0.0400","-0.0700","0.0000","0.0000","31.990","31.560","0.0000","0.000","-1","-1","-1","-1","-1","-1","-1","-1","-1","-1","-1","38.300","31.44","0.000","0.000","-1","-1","-1","-1","-1","-1","-1","-1","-1","-1","-1","0.0000","0.00","0.00","0.00","0","12.430","65.42","0.00","89.7","37.000","4.0000","7.360","89.2","1.100","22.1000","48.230","22.0000","6.0000","5.200","48.000","13.000","36.290","0.00","20.000","3.00","55.00","31.00","10.000","19.000","0.0000","0.000","0.000","15","-1","100","80","40","0.0000","0","170","126","0","200","24.20","-1"
"0.490","0.00","2324.8","0.050","-0.05","1.20","1.16","-5.17","0.0400","-0.0700","0.0000","0.0000","31.990","31.540","0.0000","0.000","-1","-1","-1","-1","-1","-1","-1","-1","-1","-1","-1","38.300","31.43","0.000","0.000","-1","-1","-1","-1","-1","-1","-1","-1","-1","-1","-1","0.0000","0.00","0.00","0.00","0","12.430","65.42","0.00","89.7","37.000","4.0000","7.360","89.2","1.100","22.1000","48.230","22.0000","6.0000","5.200","48.000","13.000","36.290","0.00","20.000","3.00","55.00","31.00","10.000","19.000","0.0000","0.000","0.000","15","-1","100","80","40","0.0000","0","170","126","0","200","24.10","-1"
"0.500","0.00","2324.8","0.060","-0.04","1.19","1.09","-5.17","0.0400","-0.0700","0.0000","0.0000","31.990","31.530","0.0000","0.000","-1","-1","-1","-1","-1","-1","-1","-1","-1","-1","-1","38.300","31.42","0.000","0.000","-1","-1","-1","-1","-1","-1","-1","-1","-1","-1","-1","0.0000","0.00","0.00","0.00","0","12.430","65.42","0.00","89.7","37.000","4.0000","7.360","89.2","1.100","22.1000","48.230","22.0000","6.0000","5.200","48.000","13.000","36.290","0.00","20.000","3.00","55.00","31.00","10.000","19.000","0.0000","0.000","0.000","15","-1","100","80","40","0.0000","0","170","126","0","200","24.00","-1"
"0.510","0.00","2324.8","0.060","-0.04","1.23","1.09","-5.17","0.0500","-0.0700","0.0000","0.0000","31.990","31.510","0.0000","0.000","-1","-1","-1","-1","-1","-1","-1","-1","-1","-1","-1","38.300","31.41","0.000","0.000","-1","-1","-1","-1","-1","-1","-1","-1","-1","-1","-1","0.0000","0.00","0.00","0.00","0","12.430","65.42","0.00","89.7","37.000","4.0000","7.360","89.2","1.100","22.1000","48.230","22.0000","6.0000","5.200","48.000","13.000","36.290","0.00","20.000","3.00","55.00","31.00","10.000","19.000","0.0000","0.000","0.000","15","-1","100","80","40","0.0000","0","170","126","0","200","23.90","-1"
"0.520","0.00","2324.8","0.040","-0.02","1.25","1.38","-5.17","0.0500","-0.0700","0.0000","0.0000","31.990","31.530","0.0000","0.000","-1","-1","-1","-1","-1","-1","-1","-1","-1","-1","-1","38.300","31.40","0.000","0.000","-1","-1","-1","-1","-1","-1","-1","-1","-1","-1","-1","0.0000","0.00","0.00","0.00","0","12.430","65.42","0.00","89.7","37.000","4.0000","7.360","89.2","1.100","22.1000","48.230","22.0000","6.0000","5.200","48.000","13.000","36.290","0.00","20.000","3.00","55.00","31.00","10.000","19.000","0.0000","0.000","0.000","15","-1","100","80","40","0.0000","0","170","126","0","200","23.80","-1"
"0.530","0.00","2324.8","0.040","-0.02","1.23","1.38","-5.16","0.0500","-0.0600","0.0000","0.0000","32.000","31.550","0.0000","0.000","-1","-1","-1","-1","-1","-1","-1","-1","-1","-1","-1","38.290","31.40","0.000","0.000","-1","-1","-1","-1","-1","-1","-1","-1","-1","-1","-1","0.0000","0.00","0.00","0.00","0","12.430","65.42","0.00","89.7","37.000","4.0000","7.360","89.2","1.100","22.1000","48.230","22.0000","6.0000","5.200","48.000","13.000","36.290","0.00","20.000","3.00","55.00","31.00","10.000","19.000","0.0000","0.000","0.000","15","-1","100","80","40","0.0000","0","170","126","0","200","23.70","-1"
"0.540","0.00","2324.8","0.080","-0.02","1.23","1.24","-5.14","0.0400","-0.0600","0.0000","0.0000","32.000","31.570","0.0000","0.000","-1","-1","-1","-1","-1","-1","-1","-1","-1","-1","-1","38.290","31.39","0.000","0.000","-1","-1","-1","-1","-1","-1","-1","-1","-1","-1","-1","0.0000","0.00","0.00","0.00","0","12.430","65.42","0.00","89.7","37.000","4.0000","7.360","89.2","1.100","22.1000","48.230","22.0000","6.0000","5.200","48.000","13.000","36.290","0.00","20.000","3.00","55.00","31.00","10.000","19.000","0.0000","0.000","0.000","15","-1","100","80","40","0.0000","0","170","126","0","200","23.60","-1"
"0.550","0.00","2324.9","0.060","-0.03","1.24","1.16","-5.13","0.0400","-0.0600","0.0000","0.0000","32.010","31.580","0.0000","0.000","-1","-1","-1","-1","-1","-1","-1","-1","-1","-1","-1","38.280","31.38","0.000","0.000","-1","-1","-1","-1","-1","-1","-1","-1","-1","-1","-1","0.0000","0.00","0.00","0.00","0","12.430","65.42","0.00","89.7","37.000","4.0000","7.360","89.2","1.100","22.1000","48.230","22.0000","6.0000","5.200","48.000","13.000","36.290","0.00","20.000","3.00","55.00","31.00","10.000","19.000","0.0000","0.000","0.000","15","-1","100","80","40","0.0000","0","170","126","0","200","23.50","-1"
"0.560","0.00","2324.9","0.040","-0.04","1.25","1.09","-5.12","0.0400","-0.0600","0.0000","0.0000","32.010","31.600","0.0000","0.000","-1","-1","-1","-1","-1","-1","-1","-1","-1","-1","-1","38.280","31.37","0.000","0.000","-1","-1","-1","-1","-1","-1","-1","-1","-1","-1","-1","0.0000","0.00","0.00","0.00","0","12.430","65.42","0.00","89.7","37.000","4.0000","7.360","89.2","1.100","22.1000","48.230","22.0000","6.0000","5.200","48.000","13.000","36.290","0.00","20.000","3.00","55.00","31.00","10.000","19.000","0.0000","0.000","0.000","15","-1","100","80","40","0.0000","0","170","126","0","200","23.40","-1"
"0.570","0.00","2324.9","0.040","-0.02","1.23","1.24","-5.11","0.0400","-0.0500","0.0000","0.0000","32.020","31.620","0.0000","0.000","-1","-1","-1","-1","-1","-1","-1","-1","-1","-1","-1","38.280","31.36","0.000","0.000","-1","-1","-1","-1","-1","-1","-1","-1","-1","-1","-1","0.0000","0.00","0.00","0.00","0","12.430","65.42","0.00","89.7","37.000","4.0000","7.360","89.2","1.100","22.1000","48.230","22.0000","6.0000","5.200","48.000","13.000","36.290","0.00","20.000","3.00","55.00","31.00","10.000","19.000","0.0000","0.000","0.000","15","-1","100","80","40","0.0000","0","170","126","0","200","23.30","-1"
"0.580","0.00","2324.9","0.060","-0.02","1.23","1.09","-5.09","0.0300","-0.0500","0.0000","0.0000","32.020","31.640","0.0000","0.000","-1","-1","-1","-1","-1","-1","-1","-1","-1","-1","-1","38.270","31.35","0.000","0.000","-1","-1","-1","-1","-1","-1","-1","-1","-1","-1","-1","0.0000","0.00","0.00","0.00","0","12.430","65.42","0.00","89.7","37.000","4.0000","7.360","89.2","1.100","22.1000","48.230","22.0000","6.0000","5.200","48.000","13.000","36.290","0.00","20.000","3.00","55.00","31.00","10.000","19.000","0.0000","0.000","0.000","15","-1","100","80","40","0.0000","0","170","126","0","200","23.20","-1"
"0.590","0.00","2324.9","0.040","-0.04","1.25","1.38","-5.11","0.0400","-0.0500","0.0000","0.0000","32.020","31.660","0.0000","0.000","-1","-1","-1","-1","-1","-1","-1","-1","-1","-1","-1","38.270","31.35","0.000","0.000","-1","-1","-1","-1","-1","-1","-1","-1","-1","-1","-1","0.0000","0.00","0.00","0.00","0","12.430","65.42","0.00","89.7","37.000","4.0000","7.360","89.2","1.100","22.1000","48.230","22.0000","6.0000","5.200","48.000","13.000","36.290","0.00","20.000","3.00","55.00","31.00","10.000","19.000","0.0000","0.000","0.000","15","-1","100","80","40","0.0000","0","170","126","0","200","23.10","-1"
"0.600","0.00","2324.9","0.040","-0.04","1.21","1.38","-5.13","0.0400","-0.0500","0.0000","0.0000","32.040","31.640","0.0000","0.000","-1","-1","-1","-1","-1","-1","-1","-1","-1","-1","-1","38.250","31.36","0.000","0.000","-1","-1","-1","-1","-1","-1","-1","-1","-1","-1","-1","0.0000","0.00","0.00","0.00","0","12.430","65.42","0.00","89.7","37.000","4.0000","7.360","89.2","1.100","22.1000","48.230","22.0000","6.0000","5.200","48.000","13.000","36.290","0.00","20.000","3.00","55.00","31.00","10.000","19.000","0.0000","0.000","0.000","15","-1","100","80","40","0.0000","0","170","126","0","200","23.00","-1"
"0.610","0.00","2324.9","-0.070","-0.02","1.23","1.38","-5.15","0.0400","-0.0600","0.0000","0.0000","32.060","31.620","0.0000","0.000","-1","-1","-1","-1","-1","-1","-1","-1","-1","-1","-1","38.230","31.37","0.000","0.000","-1","-1","-1","-1","-1","-1","-1","-1","-1","-1","-1","0.0000","0.00","0.00","0.00","0","12.430","65.42","0.00","89.7","37.000","4.0000","7.360","89.2","1.100","22.1000","48.230","22.0000","6.0000","5.200","48.000","13.000","36.290","0.00","20.000","3.00","55.00","31.00","10.000","19.000","0.0000","0.000","0.000","15","-1","100","80","40","0.0000","0","170","126","0","200","23.40","-1"
"0.620","0.00","2324.9","-0.000","-0.03","1.22","1.31","-5.17","0.0400","-0.0600","0.0000","0.0000","32.070","31.600","0.0000","0.000","-1","-1","-1","-1","-1","-1","-1","-1","-1","-1","-1","38.210","31.39","0.000","0.000","-1","-1","-1","-1","-1","-1","-1","-1","-1","-1","-1","0.0000","0.00","0.00","0.00","0","12.430","65.42","0.00","89.7","37.000","4.0000","7.360","89.2","1.100","22.1000","48.230","22.0000","6.0000","5.200","48.000","13.000","36.290","0.00","20.000","3.00","55.00","31.00","10.000","19.000","0.0000","0.000","0.000","15","-1","100","80","40","0.0000","0","170","126","0","200","23.80","-1"
"0.630","0.00","2324.9","0.060","-0.04","1.21","1.24","-5.17","0.0400","-0.0600","0.0000","0.0000","32.090","31.580","0.0000","0.000","-1","-1","-1","-1","-1","-1","-1","-1","-1","-1","-1","38.190","31.40","0.000","0.000","-1","-1","-1","-1","-1","-1","-1","-1","-1","-1","-1","0.0000","0.00","0.00","0.00","0","12.430","65.42","0.00","89.7","37.000","4.0000","7.360","89.2","1.100","22.1000","48.230","22.0000","6.0000","5.200","48.000","13.000","36.290","0.00","20.000","3.00","55.00","31.00","10.000","19.000","0.0000","0.000","0.000","15","-1","100","80","40","0.0000","0","170","126","0","200","24.20","-1"
"0.640","0.00","2324.9","0.060","-0.09","1.23","1.24","-5.17","0.0400","-0.0600","0.0000","0.0000","32.110","31.570","0.0000","0.000","-1","-1","-1","-1","-1","-1","-1","-1","-1","-1","-1","38.180","31.41","0.000","0.000","-1","-1","-1","-1","-1","-1","-1","-1","-1","-1","-1","0.0000","0.00","0.00","0.00","0","12.430","65.42","0.00","89.7","37.000","4.0000","7.360","89.2","1.100","22.1000","48.230","22.0000","6.0000","5.200","48.000","13.000","36.290","0.00","20.000","3.00","55.00","31.00","10.000","19.000","0.0000","0.000","0.000","15","-1","100","80","40","0.0000","0","170","126","0","200","24.60","-1"
"0.650","0.00","2325.0","0.040","-0.02","1.29","1.24","-5.17","0.0300","-0.0600","0.0000","0.0000","32.120","31.550","0.0000","0.000","-1","-1","-1","-1","-1","-1","-1","-1","-1","-1","-1","38.160","31.43","0.000","0.000","-1","-1","-1","-1","-1","-1","-1","-1","-1","-1","-1","0.0000","0.00","0.00","0.00","0","12.430","65.42","0.00","89.7","37.000","4.0000","7.360","89.2","1.100","22.1000","48.230","22.0000","6.0000","5.200","48.000","13.000","36.290","0.00","20.000","3.00","55.00","31.00","10.000","19.000","0.0000","0.000","0.000","15","-1","100","80","40","0.0000","0","170","126","0","200","25.00","-1"
"0.660","0.00","2325.0","0.040","-0.03","1.26","1.19","-5.17","0.0300","-0.0600","0.0000","0.0000","32.140","31.530","0.0000","0.000","-1","-1","-1","-1","-1","-1","-1","-1","-1","-1","-1","38.140","31.44","0.000","0.000","-1","-1","-1","-1","-1","-1","-1","-1","-1","-1","-1","0.0000","0.00","0.00","0.00","0","12.430","65.42","0.00","89.7","37.000","4.0000","7.360","89.2","1.100","22.1000","48.230","22.0000","6.0000","5.200","48.000","13.000","36.290","0.00","20.000","3.00","55.00","31.00","10.000","19.000","0.0000","0.000","0.000","15","-1","100","80","40","0.0000","0","170","126","0","200","25.40","-1"
"0.670","0.00","2325.0","0.050","-0.04","1.23","1.14","-5.17","0.0300","-0.0600","0.0000","0.0000","32.150","31.510","0.0000","0.000","-1","-1","-1","-1","-1","-1","-1","-1","-1","-1","-1","38.150","31.45","0.000","0.000","-1","-1","-1","-1","-1","-1","-1","-1","-1","-1","-1","0.0000","0.00","0.00","0.00","0","12.430","65.42","0.00","89.7","37.000","4.0000","7.360","89.2","1.100","22.1000","48.230","22.0000","6.0000","5.200","48.000","13.000","36.290","0.00","20.000","3.00","55.00","31.00","10.000","19.000","0.0000","0.000","0.000","15","-1","100","80","40","0.0000","0","170","126","0","200","25.80","-1"
"0.680","0.00","2325.0","0.060","-0.04","1.21","1.09","-5.17","0.0300","-0.0600","0.0000","0.0000","32.170","31.490","0.0000","0.000","-1","-1","-1","-1","-1","-1","-1","-1","-1","-1","-1","38.160","31.46","0.000","0.000","-1","-1","-1","-1","-1","-1","-1","-1","-1","-1","-1","0.0000","0.00","0.00","0.00","0","12.430","65.42","0.00","89.7","37.000","4.0000","7.360","89.2","1.100","22.1000","48.230","22.0000","6.0000","5.200","48.000","13.000","36.290","0.00","20.000","3.00","55.00","31.00","10.000","19.000","0.0000","0.000","0.000","15","-1","100","80","40","0.0000","0","170","126","0","200","26.20","-1"
"0.690","0.00","2325.0","0.040","-0.04","1.23","1.09","-5.17","0.0300","-0.0500","0.0000","0.0000","32.160","31.510","0.0000","0.000","-1","-1","-1","-1","-1","-1","-1","-1","-1","-1","-1","38.170","31.47","0.000","0.000","-1","-1","-1","-1","-1","-1","-1","-1","-1","-1","-1","0.0000","0.00","0.00","0.00","0","12.430","65.42","0.00","89.7","37.000","4.0000","7.360","89.2","1.100","22.1000","48.230","22.0000","6.0000","5.200","48.000","13.000","36.290","0.00","20.000","3.00","55.00","31.00","10.000","19.000","0.0000","0.000","0.000","15","-1","100","80","40","0.0000","0","170","126","0","200","26.60","-1"
"0.700","0.00","2325.0","0.060","-0.04","1.21","0.95","-5.17","0.0300","-0.0400","0.0000","0.0000","32.140","31.520","0.0000","0.000","-1","-1","-1","-1","-1","-1","-1","-1","-1","-1","-1","38.190","31.48","0.000","0.000","-1","-1","-1","-1","-1","-1","-1","-1","-1","-1","-1","0.0000","0.00","0.00","0.00","0","12.430","65.42","0.00","89.7","37.000","4.0000","7.360","89.2","1.100","22.1000","48.230","22.0000","6.0000","5.200","48.000","13.000","36.290","0.00","20.000","3.00","55.00","31.00","10.000","19.000","0.0000","0.000","0.000","15","-1","100","80","40","0.0000","0","170","126","0","200","27.00","-1"
"0.710","0.00","2325.0","0.060","-0.11","1.23","1.24","-5.17","0.0300","-0.0300","0.0000","0.0000","32.130","31.530","0.0000","0.000","-1","-1","-1","-1","-1","-1","-1","-1","-1","-1","-1","38.200","31.50","0.000","0.000","-1","-1","-1","-1","-1","-1","-1","-1","-1","-1","-1","0.0000","0.00","0.00","0.00","0","12.430","65.42","0.00","89.7","37.000","4.0000","7.360","89.2","1.100","22.1000","48.230","22.0000","6.0000","5.200","48.000","13.000","36.290","0.00","20.000","3.00","55.00","31.00","10.000","19.000","0.0000","0.000","0.000","15","-1","100","80","40","0.0000","0","170","126","0","200","26.80","-1"
"0.720","0.00","2325.0","0.050","-0.07","1.21","1.16","-5.17","0.0300","-0.0200","0.0000","0.0000","32.120","31.550","0.0000","0.000","-1","-1","-1","-1","-1","-1","-1","-1","-1","-1","-1","38.210","31.51","0.000","0.000","-1","-1","-1","-1","-1","-1","-1","-1","-1","-1","-1","0.0000","0.00","0.00","0.00","0","12.430","65.42","0.00","89.7","37.000","4.0000","7.360","89.2","1.100","22.1000","48.230","22.0000","6.0000","5.200","48.000","13.000","36.290","0.00","20.000","3.00","55.00","31.00","10.000","19.000","0.0000","0.000","0.000","15","-1","100","80","40","0.0000","0","170","126","0","200","26.60","-1"
"0.730","0.00","2325.0","0.040","-0.04","1.19","1.09","-5.17","0.0300","-0.0100","0.0000","0.0000","32.110","31.560","0.0000","0.000","-1","-1","-1","-1","-1","-1","-1","-1","-1","-1","-1","38.220","31.52","0.000","0.000","-1","-1","-1","-1","-1","-1","-1","-1","-1","-1","-1","0.0000","0.00","0.00","0.00","0","12.430","65.42","0.00","89.7","37.000","4.0000","7.360","89.2","1.100","22.1000","48.230","22.0000","6.0000","5.200","48.000","13.000","36.290","0.00","20.000","3.00","55.00","31.00","10.000","19.000","0.0000","0.000","0.000","15","-1","100","80","40","0.0000","0","170","126","0","200","26.40","-1"
"0.740","0.00","2325.1","0.090","-0.04","1.20","1.09","-5.15","0.0400","-0.0200","0.0000","0.0000","32.090","31.570","0.0000","0.000","-1","-1","-1","-1","-1","-1","-1","-1","-1","-1","-1","38.230","31.53","0.000","0.000","-1","-1","-1","-1","-1","-1","-1","-1","-1","-1","-1","0.0000","0.00","0.00","0.00","0","12.430","65.42","0.00","89.7","37.000","4.0000","7.360","89.2","1.100","22.1000","48.230","22.0000","6.0000","5.200","48.000","13.000","36.290","0.00","20.000","3.00","55.00","31.00","10.000","19.000","0.0000","0.000","0.000","15","-1","100","80","40","0.0000","0","170","126","0","200","26.20","-1"
"0.750","0.00","2325.1","0.140","-0.04","1.21","1.09","-5.14","0.0400","-0.0300","0.0000","0.0000","32.080","31.580","0.0000","0.000","-1","-1","-1","-1","-1","-1","-1","-1","-1","-1","-1","38.240","31.53","0.000","0.000","-1","-1","-1","-1","-1","-1","-1","-1","-1","-1","-1","0.0000","0.00","0.00","0.00","0","12.430","65.42","0.00","89.7","37.000","4.0000","7.360","89.2","1.100","22.1000","48.230","22.0000","6.0000","5.200","48.000","13.000","36.290","0.00","20.000","3.00","55.00","31.00","10.000","19.000","0.0000","0.000","0.000","15","-1","100","80","40","0.0000","0","170","126","0","200","26.00","-1"
"0.760","0.00","2325.1","0.060","-0.02","1.23","1.09","-5.12","0.0400","-0.0400","0.0000","0.0000","32.070","31.590","0.0000","0.000","-1","-1","-1","-1","-1","-1","-1","-1","-1","-1","-1","38.250","31.52","0.000","0.000","-1","-1","-1","-1","-1","-1","-1","-1","-1","-1","-1","0.0000","0.00","0.00","0.00","0","12.430","65.42","0.00","89.7","37.000","4.0000","7.360","89.2","1.100","22.1000","48.230","22.0000","6.0000","5.200","48.000","13.000","36.290","0.00","20.000","3.00","55.00","31.00","10.000","19.000","0.0000","0.000","0.000","15","-1","100","80","40","0.0000","0","170","126","0","200","25.80","-1"
"0.770","0.00","2325.1","0.040","-0.04","1.23","0.95","-5.11","0.0500","-0.0600","0.0000","0.0000","32.060","31.600","0.0000","0.000","-1","-1","-1","-1","-1","-1","-1","-1","-1","-1","-1","38.260","31.52","0.000","0.000","-1","-1","-1","-1","-1","-1","-1","-1","-1","-1","-1","0.0000","0.00","0.00","0.00","0","12.430","65.42","0.00","89.7","37.000","4.0000","7.360","89.2","1.100","22.1000","48.230","22.0000","6.0000","5.200","48.000","13.000","36.290","0.00","20.000","3.00","55.00","31.00","10.000","19.000","0.0000","0.000","0.000","15","-1","100","80","40","0.0000","0","170","126","0","200","25.60","-1"
"0.780","0.00","2325.1","0.060","-0.02","1.19","1.09","-5.09","0.0500","-0.0700","0.0000","0.0000","32.040","31.610","0.0000","0.000","-1","-1","-1","-1","-1","-1","-1","-1","-1","-1","-1","38.260","31.51","0.000","0.000","-1","-1","-1","-1","-1","-1","-1","-1","-1","-1","-1","0.0000","0.00","0.00","0.00","0","12.430","65.42","0.00","89.7","37.000","4.0000","7.360","89.2","1.100","22.1000","48.230","22.0000","6.0000","5.200","48.000","13.000","36.290","0.00","20.000","3.00","55.00","31.00","10.000","19.000","0.0000","0.000","0.000","15","-1","100","80","40","0.0000","0","170","126","0","200","25.40","-1"
"0.790","0.00","2325.1","0.040","-0.04","1.23","1.38","-5.11","0.0500","-0.0600","0.0000","0.0000","32.030","31.610","0.0000","0.000","-1","-1","-1","-1","-1","-1","-1","-1","-1","-1","-1","38.270","31.51","0.000","0.000","-1","-1","-1","-1","-1","-1","-1","-1","-1","-1","-1","0.0000","0.00","0.00","0.00","0","12.430","65.42","0.00","89.7","37.000","4.0000","7.360","89.2","1.100","22.1000","48.230","22.0000","6.0000","5.200","48.000","13.000","36.290","0.00","20.000","3.00","55.00","31.00","10.000","19.000","0.0000","0.000","0.000","15","-1","100","80","40","0.0000","0","170","126","0","200","25.20","-1"
"0.800","0.00","2325.1","0.060","-0.04","1.25","1.24","-5.12","0.0400","-0.0500","0.0000","0.0000","32.020","31.620","0.0000","0.000","-1","-1","-1","-1","-1","-1","-1","-1","-1","-1","-1","38.280","31.51","0.000","0.000","-1","-1","-1","-1","-1","-1","-1","-1","-1","-1","-1","0.0000","0.00","0.00","0.00","0","12.430","65.42","0.00","89.7","37.000","4.0000","7.360","89.2","1.100","22.1000","48.230","22.0000","6.0000","5.200","48.000","13.000","36.290","0.00","20.000","3.00","55.00","31.00","10.000","19.000","0.0000","0.000","0.000","15","-1","100","80","40","0.0000","0","170","126","0","200","25.00","-1"
"0.810","0.00","2325.1","0.040","-0.04","1.25","1.09","-5.14","0.0400","-0.0500","0.0000","0.0000","32.010","31.630","0.0000","0.000","-1","-1","-1","-1","-1","-1","-1","-1","-1","-1","-1","38.290","31.50","0.000","0.000","-1","-1","-1","-1","-1","-1","-1","-1","-1","-1","-1","0.0000","0.00","0.00","0.00","0","12.430","65.42","0.00","89.7","37.000","4.0000","7.360","89.2","1.100","22.1000","48.230","22.0000","6.0000","5.200","48.000","13.000","36.290","0.00","20.000","3.00","55.00","31.00","10.000","19.000","0.0000","0.000","0.000","15","-1","100","80","40","0.0000","0","170","126","0","200","25.10","-1"
"0.820","0.00","2325.1","0.050","-0.04","1.24","1.02","-5.15","0.0400","-0.0400","0.0000","0.0000","32.000","31.630","0.0000","0.000","-1","-1","-1","-1","-1","-1","-1","-1","-1","-1","-1","38.300","31.50","0.000","0.000","-1","-1","-1","-1","-1","-1","-1","-1","-1","-1","-1","0.0000","0.00","0.00","0.00","0","12.430","65.42","0.00","89.7","37.000","4.0000","7.360","89.2","1.100","22.1000","48.230","22.0000","6.0000","5.200","48.000","13.000","36.290","0.00","20.000","3.00","55.00","31.00","10.000","19.000","0.0000","0.000","0.000","15","-1","100","80","40","0.0000","0","170","126","0","200","25.20","-1"
"0.830","0.00","2325.1","0.060","-0.04","1.23","0.95","-5.17","0.0300","-0.0300","0.0000","0.0000","31.990","31.640","0.0000","0.000","-1","-1","-1","-1","-1","-1","-1","-1","-1","-1","-1","38.300","31.49","0.000","0.000","-1","-1","-1","-1","-1","-1","-1","-1","-1","-1","-1","0.0000","0.00","0.00","0.00","0","12.430","65.42","0.00","89.7","37.000","4.0000","7.360","89.2","1.100","22.1000","48.230","22.0000","6.0000","5.200","48.000","13.000","36.290","0.00","20.000","3.00","55.00","31.00","10.000","19.000","0.0000","0.000","0.000","15","-1","100","80","40","0.0000","0","170","126","0","200","25.30","-1"
"0.840","0.00","2325.2","0.040","-0.02","1.25","1.24","-5.17","0.0400","-0.0400","0.0000","0.0000","32.000","31.610","0.0000","0.000","-1","-1","-1","-1","-1","-1","-1","-1","-1","-1","-1","38.290","31.49","0.000","0.000","-1","-1","-1","-1","-1","-1","-1","-1","-1","-1","-1","0.0000","0.00","0.00","0.00","0","12.430","65.42","0.00","89.7","37.000","4.0000","7.360","89.2","1.100","22.1000","48.230","22.0000","6.0000","5.200","48.000","13.000","36.290","0.00","20.000","3.00","55.00","31.00","10.000","19.000","0.0000","0.000","0.000","15","-1","100","80","40","0.0000","0","170","126","0","200","25.40","-1"
"0.850","0.00","2325.2","0.040","-0.02","1.21","1.24","-5.17","0.0400","-0.0500","0.0000","0.0000","32.020","31.580","0.0000","0.000","-1","-1","-1","-1","-1","-1","-1","-1","-1","-1","-1","38.270","31.49","0.000","0.000","-1","-1","-1","-1","-1","-1","-1","-1","-1","-1","-1","0.0000","0.00","0.00","0.00","0","12.430","65.42","0.00","89.7","37.000","4.0000","7.360","89.2","1.100","22.1000","48.230","22.0000","6.0000","5.200","48.000","13.000","36.290","0.00","20.000","3.00","55.00","31.00","10.000","19.000","0.0000","0.000","0.000","15","-1","100","80","40","0.0000","0","170","126","0","200","25.50","-1"
"0.860","0.00","2325.2","0.040","-0.04","1.25","1.38","-5.17","0.0400","-0.0500","0.0000","0.0000","32.040","31.560","0.0000","0.000","-1","-1","-1","-1","-1","-1","-1","-1","-1","-1","-1","38.250","31.49","0.000","0.000","-1","-1","-1","-1","-1","-1","-1","-1","-1","-1","-1","0.0000","0.00","0.00","0.00","0","12.430","65.42","0.00","89.7","37.000","4.0000","7.360","89.2","1.100","22.1000","48.230","22.0000","6.0000","5.200","48.000","13.000","36.290","0.00","20.000","3.00","55.00","31.00","10.000","19.000","0.0000","0.000","0.000","15","-1","100","80","40","0.0000","0","170","126","0","200","25.60","-1"
"0.870","0.00","2325.2","0.040","-0.05","1.24","1.33","-5.17","0.0400","-0.0600","0.0000","0.0000","32.050","31.530","0.0000","0.000","-1","-1","-1","-1","-1","-1","-1","-1","-1","-1","-1","38.230","31.48","0.000","0.000","-1","-1","-1","-1","-1","-1","-1","-1","-1","-1","-1","0.0000","0.00","0.00","0.00","0","12.430","65.42","0.00","89.7","37.000","4.0000","7.360","89.2","1.100","22.1000","48.230","22.0000","6.0000","5.200","48.000","13.000","36.290","0.00","20.000","3.00","55.00","31.00","10.000","19.000","0.0000","0.000","0.000","15","-1","100","80","40","0.0000","0","170","126","0","200","25.70","-1"
"0.880","0.00","2325.2","0.040","-0.06","1.23","1.28","-5.17","0.0400","-0.0700","0.0000","0.0000","32.070","31.500","0.0000","0.000","-1","-1","-1","-1","-1","-1","-1","-1","-1","-1","-1","38.210","31.48","0.000","0.000","-1","-1","-1","-1","-1","-1","-1","-1","-1","-1","-1","0.0000","0.00","0.00","0.00","0","12.430","65.42","0.00","89.7","37.000","4.0000","7.360","89.2","1.100","22.1000","48.230","22.0000","6.0000","5.200","48.000","13.000","36.290","0.00","20.000","3.00","55.00","31.00","10.000","19.000","0.0000","0.000","0.000","15","-1","100","80","40","0.0000","0","170","126","0","200","25.80","-1"
"0.890","0.00","2325.2","0.040","-0.06","1.23","1.24","-5.17","0.0400","-0.0700","0.0000","0.0000","32.080","31.470","0.0000","0.000","-1","-1","-1","-1","-1","-1","-1","-1","-1","-1","-1","38.190","31.48","0.000","0.000","-1","-1","-1","-1","-1","-1","-1","-1","-1","-1","-1","0.0000","0.00","0.00","0.00","0","12.430","65.42","0.00","89.7","37.000","4.0000","7.360","89.2","1.100","22.1000","48.230","22.0000","6.0000","5.200","48.000","13.000","36.290","0.00","20.000","3.00","55.00","31.00","10.000","19.000","0.0000","0.000","0.000","15","-1","100","80","40","0.0000","0","170","126","0","200","25.90","-1"
"0.900","0.00","2325.2","0.040","-0.05","1.24","1.24","-5.17","0.0400","-0.0700","0.0000","0.0000","32.100","31.450","0.0000","0.000","-1","-1","-1","-1","-1","-1","-1","-1","-1","-1","-1","38.180","31.48","0.000","0.000","-1","-1","-1","-1","-1","-1","-1","-1","-1","-1","-1","0.0000","0.00","0.00","0.00","0","12.430","65.42","0.00","89.7","37.000","4.0000","7.360","89.2","1.100","22.1000","48.230","22.0000","6.0000","5.200","48.000","13.000","36.290","0.00","20.000","3.00","55.00","31.00","10.000","19.000","0.0000","0.000","0.000","15","-1","100","80","40","0.0000","0","170","126","0","200","26.00","-1"
"0.910","0.00","2325.2","0.040","-0.04","1.25","1.24","-5.17","0.0400","-0.0700","0.0000","0.0000","32.120","31.420","0.0000","0.000","-1","-1","-1","-1","-1","-1","-1","-1","-1","-1","-1","38.160","31.47","0.000","0.000","-1","-1","-1","-1","-1","-1","-1","-1","-1","-1","-1","0.0000","0.00","0.00","0.00","0","12.430","65.42","0.00","89.7","37.000","4.0000","7.360","89.2","1.100","22.1000","48.230","22.0000","6.0000","5.200","48.000","13.000","36.290","0.00","20.000","3.00","55.00","31.00","10.000","19.000","0.0000","0.000","0.000","15","-1","100","80","40","0.0000","0","170","126","0","200","25.82","-1"
"0.920","0.00","2325.2","0.080","-0.02","1.25","1.09","-5.17","0.0400","-0.0700","0.0000","0.0000","32.100","31.430","0.0000","0.000","-1","-1","-1","-1","-1","-1","-1","-1","-1","-1","-1","38.180","31.47","0.000","0.000","-1","-1","-1","-1","-1","-1","-1","-1","-1","-1","-1","0.0000","0.00","0.00","0.00","0","12.430","65.42","0.00","89.7","37.000","4.0000","7.360","89.2","1.100","22.1000","48.230","22.0000","6.0000","5.200","48.000","13.000","36.290","0.00","20.000","3.00","55.00","31.00","10.000","19.000","0.0000","0.000","0.000","15","-1","100","80","40","0.0000","0","170","126","0","200","25.64","-1"
"0.930","0.00","2325.2","0.060","-0.02","1.21","1.09","-5.17","0.0400","-0.0700","0.0000","0.0000","32.080","31.440","0.0000","0.000","-1","-1","-1","-1","-1","-1","-1","-1","-1","-1","-1","38.200","31.46","0.000","0.000","-1","-1","-1","-1","-1","-1","-1","-1","-1","-1","-1","0.0000","0.00","0.00","0.00","0","12.430","65.42","0.00","89.7","37.000","4.0000","7.360","89.2","1.100","22.1000","48.230","22.0000","6.0000","5.200","48.000","13.000","36.290","0.00","20.000","3.00","55.00","31.00","10.000","19.000","0.0000","0.000","0.000","15","-1","100","80","40","0.0000","0","170","126","0","200","25.45","-1"
"0.940","0.00","2325.3","0.060","-0.04","1.19","0.95","-5.17","0.0400","-0.0700","0.0000","0.0000","32.070","31.460","0.0000","0.000","-1","-1","-1","-1","-1","-1","-1","-1","-1","-1","-1","38.230","31.45","0.000","0.000","-1","-1","-1","-1","-1","-1","-1","-1","-1","-1","-1","0.0000","0.00","0.00","0.00","0","12.430","65.42","0.00","89.7","37.000","4.0000","7.360","89.2","1.100","22.1000","48.230","22.0000","6.0000","5.200","48.000","13.000","36.290","0.00","20.000","3.00","55.00","31.00","10.000","19.000","0.0000","0.000","0.000","15","-1","100","80","40","0.0000","0","170","126","0","200","25.27","-1"
"0.950","0.00","2325.3","0.040","-0.13","1.21","1.09","-5.17","0.0400","-0.0600","0.0000","0.0000","32.050","31.470","0.0000","0.000","-1","-1","-1","-1","-1","-1","-1","-1","-1","-1","-1","38.250","31.45","0.000","0.000","-1","-1","-1","-1","-1","-1","-1","-1","-1","-1","-1","0.0000","0.00","0.00","0.00","0","12.430","65.42","0.00","89.7","37.000","4.0000","7.360","89.2","1.100","22.1000","48.230","22.0000","6.0000","5.200","48.000","13.000","36.290","0.00","20.000","3.00","55.00","31.00","10.000","19.000","0.0000","0.000","0.000","15","-1","100","80","40","0.0000","0","170","126","0","200","25.09","-1"
"0.960","0.00","2325.3","0.060","-0.04","1.23","1.09","-5.17","0.0400","-0.0600","0.0000","0.0000","32.030","31.480","0.0000","0.000","-1","-1","-1","-1","-1","-1","-1","-1","-1","-1","-1","38.270","31.44","0.000","0.000","-1","-1","-1","-1","-1","-1","-1","-1","-1","-1","-1","0.0000","0.00","0.00","0.00","0","12.430","65.42","0.00","89.7","37.000","4.0000","7.360","89.2","1.100","22.1000","48.230","22.0000","6.0000","5.200","48.000","13.000","36.290","0.00","20.000","3.00","55.00","31.00","10.000","19.000","0.0000","0.000","0.000","15","-1","100","80","40","0.0000","0","170","126","0","200","24.91","-1"
"0.970","0.00","2325.3","0.050","-0.04","1.23","1.02","-5.17","0.0400","-0.0600","0.0000","0.0000","32.020","31.490","0.0000","0.000","-1","-1","-1","-1","-1","-1","-1","-1","-1","-1","-1","38.300","31.43","0.000","0.000","-1","-1","-1","-1","-1","-1","-1","-1","-1","-1","-1","0.0000","0.00","0.00","0.00","0","12.430","65.42","0.00","89.7","37.000","4.0000","7.360","89.2","1.100","22.1000","48.230","22.0000","6.0000","5.200","48.000","13.000","36.290","0.00","20.000","3.00","55.00","31.00","10.000","19.000","0.0000","0.000","0.000","15","-1","100","80","40","0.0000","0","170","126","0","200","24.73","-1"
"0.980","0.00","2325.3","0.040","-0.04","1.23","0.95","-5.17","0.0400","-0.0600","0.0000","0.0000","32.000","31.510","0.0000","0.000","-1","-1","-1","-1","-1","-1","-1","-1","-1","-1","-1","38.320","31.43","0.000","0.000","-1","-1","-1","-1","-1","-1","-1","-1","-1","-1","-1","0.0000","0.00","0.00","0.00","0","12.430","65.42","0.00","89.7","37.000","4.0000","7.360","89.2","1.100","22.1000","48.230","22.0000","6.0000","5.200","48.000","13.000","36.290","0.00","20.000","3.00","55.00","31.00","10.000","19.000","0.0000","0.000","0.000","15","-1","100","80","40","0.0000","0","170","126","0","200","24.55","-1"
"0.990","0.00","2325.3","0.050","-0.03","1.23","1.09","-5.17","0.0400","-0.0600","0.0000","0.0000","31.990","31.520","0.0000","0.000","-1","-1","-1","-1","-1","-1","-1","-1","-1","-1","-1","38.340","31.42","0.000","0.000","-1","-1","-1","-1","-1","-1","-1","-1","-1","-1","-1","0.0000","0.00","0.00","0.00","0","12.430","65.42","0.00","89.7","37.000","3.9900","7.350","89.2","1.100","22.1000","48.230","22.0000","6.0000","5.200","48.000","13.000","36.290","0.00","20.000","3.00","55.00","31.00","10.000","19.000","0.0000","0.000","0.000","15","-1","100","80","40","0.0000","0","170","126","0","200","24.36","-1"
"1.000","0.00","2325.3","0.060","-0.02","1.23","1.24","-5.19","0.0400","-0.0600","0.0000","0.0000","31.970","31.530","0.0000","0.000","-1","-1","-1","-1","-1","-1","-1","-1","-1","-1","-1","38.340","31.43","0.000","0.000","-1","-1","-1","-1","-1","-1","-1","-1","-1","-1","-1","0.0000","0.00","0.00","0.00","0","12.430","65.42","0.00","89.7","37.000","3.9900","7.330","89.2","1.100","22.1000","48.230","22.0000","6.0000","5.200","48.000","13.000","36.290","0.00","20.000","3.00","55.00","31.00","10.000","19.000","0.0000","0.000","0.000","15","-1","100","80","40","0.0000","0","170","126","0","200","24.18","-1"
"1.010","0.00","2325.3","0.040","-0.02","1.21","0.95","-5.21","0.0400","-0.0600","0.0000","0.0000","31.970","31.540","0.0000","0.000","-1","-1","-1","-1","-1","-1","-1","-1","-1","-1","-1","38.330","31.44","0.000","0.000","-1","-1","-1","-1","-1","-1","-1","-1","-1","-1","-1","0.0000","0.00","0.00","0.00","0","12.420","65.42","0.00","89.7","37.000","3.9900","7.320","89.2","1.100","22.1000","48.230","22.0000","6.0000","5.200","48.000","13.000","36.290","0.00","20.000","3.00","55.00","31.00","10.000","19.000","0.0000","0.000","0.000","15","-1","100","80","40","0.0000","0","170","126","0","200","24.00","-1"
